Machine Learning and Survival Analysis
…
bm_scores <- benchmark_result$score(measures, predict_sets = "test")
```

---

**Results** How should we summarize these?

```r
bm_scores %>%
 select(task_id, learner_id, surv.graf, surv.cindex, time_train)
```

```
## # A tibble: 40 x 5
##    task_id learner_id surv.graf surv.cindex time_train
##    <chr>   <chr>          <dbl>       <dbl>      <dbl>
##  1 pbc     surv.coxph    0.264        0.814     0     
##  2 pbc     surv.coxph    0.163        0.829     0.0100
##  3 pbc     surv.coxph    0.152        0.832     0.0100
##  4 pbc     surv.coxph    0.194        0.797     0     
##  5 pbc     surv.coxph    0.111        0.863     0     
##  6 pbc     surv.coxph    0.135        0.778     0     
##  7 pbc     surv.coxph    0.132        0.867     0     
##  8 pbc     surv.coxph    0.121        0.864     0.0100
##  9 pbc     surv.coxph    0.0989       0.895     0.0200
## 10 pbc     surv.coxph    0.147        0.756     0.0200
## # ... with 30 more rows
```
…
